## Interface: 90005
## Title: Combuctor Config
## Author: Tuller and Jaliborc (João Cardoso)
## Notes: An options menu for Combuctor
## Dependencies: Combuctor
## LoadOnDemand: 1

..\Combuctor\addons\config\config.xml


## Title: |cff880303[爱不易]|r Combuctor 配置
## X-Vendor: AbyUI
