## Interface: 90005
## Title: Tidy Plates: Graphite
## Notes: Minimalisty
## Author: Binny
## Dependencies: TidyPlates, TidyPlatesHub

Graphite.lua

## Title-zhCN: |cff880303[爱不易]|r Tidy 姓名板Graphite主题
## Title-zhTW: |cff880303[爱不易]|r Tidy 姓名板Graphite主题
## Notes-zhCN: 强大到爆的多功能姓名版美化插件-Graphite简洁风格模块。
## Notes-zhTW: 強大到爆的多功能姓名版美化插件-Graphite簡潔風格模塊。
## X-Vendor: AbyUI
