﻿## Interface: 90005
## Title: Fizzle
## Notes: Show item durability and quality in the character frame.
## Author: phyber
## Version: 50400-1
## SavedVariablesPerCharacter: FizzleDB
## OptionalDeps: Ace3, Voyeur

Locales\locales.xml

Core.lua
Inspect.lua

## Title: |cff880303[爱不易]|r Fizzle 装备耐久显示
## Notes-zhCN: 边框品质着色、人物界面耐久度显示.
## Notes-zhTW: 邊框品質著色、人物界面耐久度顯示.
## X-Vendor: AbyUI
