#@retail@
## Interface: 90005
#@end-retail@
#@non-retail@
# ## Interface: 11306
#@end-non-retail@
## Title: ChocolateBar
## Notes: A display for LibDataBroker-1.1
## Author: Kiatra - github.com/Kiatra/ChocolateBar/
## Version: v3.6.15
## OptionalDeps: Ace3, LibSharedMedia-3.0, LibQTip-1.0
## X-WoWI-ID: 12326
## SavedVariables: ChocolateBarDB, CB_PlayedTime

#@no-lib-strip@
#libs\libs.xml
#@end-no-lib-strip@

localization\enUS.lua
localization\zhCN.lua
localization\zhTW.lua

Core.lua
Jostle.lua
DragAndDrop.lua
Chocolate.lua
Bar.lua
DropPoints.lua
modules\Placeholder.lua
modules\MoreChocolate.lua
Options.lua

#@debug@
# modules\CB_ItemLevel.lua
# modules\CB_Lauchers_LibQTip.lua
# modules\CB_GameMusic.lua
# modules\CB_TestNoText.lua
#@end-debug@

modules\CB_PlayedTime_Loc.lua
modules\CB_PlayedTime.lua
modules\CB_PlayedTime_Options.lua


Brokers.lua


## Title: |cff880303[爱不易]|r Chocolate 巧克力信息条
## Notes-zhCN: 可以自定义显示在屏幕边缘的信息条框体
## X-Vendor: AbyUI
