## Interface: 90005
## Version: v1.1.3
## Title: PlexusStatusRD(Shadowlands)
## Notes: Debuff List for Shadowlands
## Author: Doadin
## Grid Author: Pastamancer & Maia
## Dependencies: PlexusStatusRaidDebuff
## OptionalDeps: Grid, Plexus
## X-Curse-Project-ID: 411702

CastleNathria.lua


## Title: |cff880303[爱不易]|r Grid 团队减益9.0
## X-Vendor: AbyUI
