## Interface: 90005
## Title: Grail |cff69ccf0NPCs |r|cff0000ffRetail|r
## Author: Scott M Harrison
## Notes: Provides NPCs to Grail for Retail
## Version: 27178
## Dependencies: Grail
## LoadOnDemand: 1

Grail-NPCs-_retail_.lua

## Title: |cff880303[爱不易]|r Grail NPC模块
## X-Vendor: AbyUI