## Interface: 90005
## Title: Dominos Cast
## Title-zhCN: |cFF0099FFDominos|r 施法条模块
## Notes: A movable casting bar, with timer
## Notes-zhCN: 一个可移动的带计时器的施法条
## Author: Tuller
## Dependencies: Dominos
localization.xml
DominosTimerBarTemplate.xml
castBar.lua
mirrorTimer.lua
main.lua


## Title-zhCN: |cff880303[爱不易]|r Dominos 施法条
## Notes-zhCN: 多米诺-施法条模块
## X-Vendor: AbyUI
