## Interface: 90005
## Title: Dominos Cast
## Title-zhCN: |cFF0099FF[Dominos]|r 经典施法条模块
## Notes: A movable casting bar, with timer
## Author: Tuller
## Dependencies: Dominos
castBar.lua


## Title-zhCN: |cff880303[爱不易]|r Dominos 经典施法条
## Notes-zhCN: 多米诺-经典施法条模块
## X-Vendor: AbyUI
