## Interface: 90005
## Title:|cffffe00a<|r|cffff7d0aDBM|r|cffffe00a>|r |cff69ccf0World Bosses (BfA)|r
## Title-deDE:|cffffe00a<|r|cffff7d0aDBM|r|cffffe00a>|r |cff69ccf0World Bosses (BfA)|r
## Title-koKR:|cffffe00a<|r|cffff7d0aDBM|r|cffffe00a>|r |cff69ccf0아제로스 (격아)|r
## Title-zhTW:|cffffe00a<|r|cffff7d0aDBM|r|cffffe00a>|r |cff69ccf0艾澤拉斯 (決戰艾澤拉斯)|r
## Title-ruRU:|cffffe00a<|r|cffff7d0aDBM|r|cffffe00a>|r |cff69ccf0Мировые боссы (BfA)|r
## Author: MysticalOS
## LoadOnDemand: 1
## RequiredDeps: DBM-Core
## SavedVariables: DBMAzerothBfA_AllSavedVars
## SavedVariablesPerCharacter: DBMAzerothBfA_SavedStats
## X-DBM-Mod: 1
## X-DBM-Mod-Type: RAID
## X-DBM-Mod-Category: BFA
## X-DBM-StatTypes: normal
## X-DBM-Mod-SubCategoriesID: 1643, 1642, 1943, 2105, 1718, 1779
## X-DBM-Mod-Name: World Bosses (BfA)
## X-DBM-Mod-Name-koKR: 아제로스 (격아)
## X-DBM-Mod-Name-zhTW: 艾澤拉斯 (決戰艾澤拉斯)
## X-DBM-Mod-Name-zhCN: 世界BOSS (争霸艾泽拉斯)
## X-DBM-Mod-Name-ruRU: Мировые боссы (BfA)
## X-DBM-Mod-World-Boss: 1
## X-DBM-Mod-Sort: 410
## X-DBM-Mod-MapID: 1643,1642,0,1,1718,1943,1876,2105,2111,2275,870
## X-DBM-Mod-LoadCID: 132701,132253,136385,140163,140252,138794,138122,137374,148295,144946,152697,152671,152736,152729,155702,137702,154638,160970
## X-DBM-Mod-MinCoreRevision: 17286
## X-DBM-Mod-MinExpansion: 7
## X-Curse-Project-ID: 420275
## X-WoWI-ID: 25779
## X-Wago-ID: RXKqxj6y
## Version: r2-5-g2a4fcff
localization.en.lua
localization.cn.lua
localization.tw.lua
Shekzara.lua
Vuklaz.lua
Tzane.lua
Jiarak.lua
HailstoneConstruct.lua
Azurethos.lua
DoomsHowl.lua
Yenajz.lua
Kraulok.lua
Ivus.lua
Ulmath.lua
Wekemara.lua
WarfrontArathi.lua

## X-Vendor: AbyUI
