## Interface: 90005
## Title: World Quests List
## Author: ykiigor
## Version: 100
## SavedVariables: VWQL
db.lua
util.lua
Arrow.lua
templates.xml
games.lua
WorldQuestsList.lua

## Title-zhCN: |cff880303[爱不易]|r World 世界任务列表
## X-Vendor: AbyUI

