## Interface: 90005
## Notes: Compare your equipments bonus of all status with other players.
## Notes-zhCN: 与观察目标的装备属性进行比较
## Notes-zhTW: 與觀察目標的裝備屬性進行比較
## Author-Origin: slashboy @ 九藜方舟 Dreamland  yyslash@gmail.com / lasthime @ 幻物梵天 艾森纳  warbaby
## Author: Henrui @ 幽暗沼泽 zhengruiw02@gmail.com, EUI version
## Version: GSS Realse 6

Localization.lua
GearStatsSummary.xml

## Title: |cff880303[爱不易]|r GearStats 装备统计
## Notes-zhCN: 显示玩家或观察目标的装备列表及等级信息
## X-Vendor: AbyUI



