## Interface: 90005
## Title: Grail |cff69ccf0Reputations |r|cff0000ffRetail|r
## Author: Scott M Harrison
## Notes: Provides reputation award information to Grail for Retail
## Version: 007
## Dependencies: Grail
## LoadOnDemand: 1

Grail-Reputations-_retail_.lua

## Title: |cff880303[爱不易]|r Grail 声望奖励模块
## X-Vendor: AbyUI
