﻿## Interface: 90005
## X-Min-Interface: 80000
## Title:|cffffe00a<|r|cffff7d0aDBM|r|cffffe00a>|r |cff69ccf0World: Timeless Isle|r
## Title-esES:|cffffe00a<|r|cffff7d0aDBM|r|cffffe00a>|r |cff69ccf0Isla Intemporal|r
## Author: MysticalOS
## LoadOnDemand: 1
## RequiredDeps: DBM-Core
## SavedVariables: DBMTimelessIsle_AllSavedVars
## X-DBM-Mod: 1
## X-DBM-Mod-Type: OTHER
## X-DBM-Mod-Category: MOP
## X-DBM-Mod-No-Statistics: 1
## X-DBM-Mod-Name: World: Timeless Isle
## X-DBM-Mod-Name-esES: Isla Intemporal
## X-DBM-Mod-Sort: 716
## X-DBM-Mod-MapID: 870
## X-DBM-Mod-MinCoreRevision: 12473
## X-Curse-Project-ID: 84414

localization.en.lua
IsleTimeless.lua



## X-Vendor: AbyUI
