## Interface: 90005
## Title: HandyNotes_SummerFestival
## Notes: Displays the locations of Summer Festival bonfires.
## Author: Ravendwyr
## Version: v1.6.2
## X-Category: Map & Minimap
## X-Curse-Project-ID: 45903
## SavedVariables: HandyNotes_SummerFestivalDB
## RequiredDeps: HandyNotes

Core.lua

Alliance.lua
Horde.lua

## Title-zhCN: |cff880303[爱不易]|r HandyNotes 仲夏节篝火
## X-Vendor: AbyUI

