## Interface: 90005
## Title: DuowanChat
# Title-zhCN: 聊天增强
# Title-zhTW: 聊天增强
## Author: Terry, dugu@bigfoot
## Version: 0.1
## X-DuowanAddon: 介面聊天
## SavedVariables: DuowanChatDB, DuowanChatPlayerDB
### SavedVariablesPerCharacter: DuowanChatPerDB
## LoadOnDemand: 

locale\locale.en.lua
locale\locale.cn.lua
locale\locale.tw.lua
frame.xml

## Title: |cff880303[爱不易]|r DWChat 聊天增强
## Notes-zhCN: 聊天增加插件，提供快捷切换频道和聊天表情等。
## X-Vendor: AbyUI
