## Interface: 90005
## Title: GladiatorlosSA_zhCN(Yike_Xia)
## Title-zhCN:GladiatorlosSA_夏一可语音包
## Title-zhTW:GladiatorlosSA_夏一可語音包
## Notes: GSA plugin for Chinese voice set
## Author: Yike Xia, Mini_Dragon
## Version: 20160725

GladiatorlosSA_zhCN.lua

## Title-zhCN: |cff880303[爱不易]|r Gladiator 中文包
## X-Vendor: AbyUI

