## Interface: 90005
## Title: Angry Keystones
## Notes: Displays additional information for Mythic Keystone dungeons
## Author: Ermad
## SavedVariables: AngryKeystones_Config, AngryKeystones_Data
## SavedVariablesPerCharacter: AngryKeystones_CharacterConfig
## X-Packaged-Version: v0.20.0

Core.lua
Locale.lua
Config.lua

ObjectiveTracker.lua
ProgressTracker.lua
Keystone.lua
Gossip.lua
Splits.lua
Schedule.lua

## Title-zhCN: |cff880303[爱不易]|r AngryKS 秘境计时增强
## X-Vendor: AbyUI

