## Interface: 90005
## Title: Details!: Encounter Breakdown (plugin)
## Notes: Show detailed information about a boss encounter. Also provide damage per phase, graphic charts, easy weakauras creation.
## RequiredDeps: Details
## OptionalDeps: Ace3
## SavedVariablesPerCharacter: EncounterDetailsDB


enUS.lua
frames.lua

Details_EncounterDetails.lua


## X-Vendor: AbyUI
