## Interface: 90005
## Title: tdCore
## Author: ldz5
## Version: 50100.06
## SavedVariables: TDDB_TDCORE

load.xml

## Title: |cff880303[爱不易]|r tdCore 背包整理依赖
## Notes-zhCN: 背包整理核心程序.
## X-Vendor: AbyUI