## Interface: 90005
## Title: Dominos
## Notes: A main actionbar replacement
## Notes-zhCN: 一种动作条替换方案
## Author: Tuller
## Version: 9.0.28
## SavedVariables: DominosDB
## OptionalDeps: Ace3, LibKeyBound-1.0, LibSharedMedia-3.0, Masque, FlyPaper
## X-Build: @game-type@
## X-Build: Retail
# stuff required for the addon to work
embeds.xml
localization.xml
Dominos.lua
core\helpers.lua
core\barStates.lua
core\shadowUIParent.lua
core\frame.lua
core\buttonBar.lua
core\bindableButton.lua
core\fadeManager.lua
core\overrideController.lua
core\tooltipController.lua
# builtin bars
bars\actionButtonMixin.lua
bars\actionButtons.lua
bars\actionBar.lua
bars\actionBarMenu.lua
bars\actionBarModule.lua
bars\petBar.lua
bars\stanceBar.lua
bars\bagBar.lua
bars\menuBar.lua
bars\possessBar.lua
bars\extraAbilityBar.lua
bars\vehicleBar.lua
# stuff you should be able to comment out and still have Dominos work
plugins\slashCommands.lua
plugins\launcher.lua
plugins\blizzardHider.lua
plugins\buttonThemer.lua
plugins\quickBindings.lua
plugins\multiActionBarFixer.lua


## Title-zhCN: |cff880303[爱不易]|r Dominos 多米诺动作条
## Notes-zhCN: 一个简单易用的动作条移动插件|n可以移动动作条、施法条、宠物条等等|n右键点击方案可以复制
## X-Vendor: AbyUI

pagebar.lua
163UI-patch.lua
