## Interface: 90005
## Title: ErrorFilter
## Notes: Filters the errors displayed in the UIErrorsFrame.
## Version: v3.7
## Author: iceeagle
## OptionalDeps: Ace3, LibSink-2.0
## SavedVariables: ErrorFilterDB
## DefaultState: enabled

## LoadManagers: AddonLoader
## X-LoadOn-Always: Delayed

ErrorFilter.xml


## Title: |cff880303[爱不易]|r ErrorFilter 错误过滤
## Notes-zhCN: 自动过滤掉屏幕上方的红色提示文字.
## X-Vendor: AbyUI
