## Interface: 90005
## Version: 20.11.04
## Title: TipTac
## Author: Aezay (Earthen Ring EU)
## Notes: Highly Customizable Tooltip Enhancement Addon
## SavedVariables: TipTac_Config
abyLocales.lua
ttCore.lua
ttStyle.lua
ttBars.lua
ttAuras.lua
ttIcons.lua
ttHyperlink.lua

## OptionalDeps: RECrystallize
## Title-zhCN: |cff880303[爱不易]|r TipTac 鼠标提示增强
## X-Vendor: AbyUI