## Interface: 90005
## Title: Bagnon Config
## Author: Tuller and Jaliborc (João Cardoso)
## Notes: An options menu for Bagnon
## Dependencies: Bagnon
## LoadOnDemand: 1

..\Bagnon\addons\config\config.xml


## Title-zhCN: |cff880303[爱不易]|r Bagnon 整合背包配置
## X-Vendor: AbyUI
