## Interface: 90005
## Title: HandyNotes: Battle for Azeroth
## Version: 5
## Notes: Battle for Azeroth Notes
## OptionalDeps: Ace3
## RequiredDeps: HandyNotes
## X-Embeds: Ace3
## SavedVariables: HandyNotes_BattleForAzerothDB

#embeds.xml
core\core.xml
plugin.xml


## Title-zhCN: |cff880303[爱不易]|r HandyNotes 争霸艾泽拉斯
## X-Vendor: AbyUI
