## Interface: 90005
## Title: TellMeWhen Options

## Author: Cybeloras of Aerie Peak
## Notes: Options and configuration for TellMeWhen
## RequiredDeps: TellMeWhen
## LoadOnDemand: 1
## SavedVariables: TMWOptDB
## X-Category: Combat

## OptionalDeps: LibBabble-CreatureType-3.0, LibBabble-Race-3.0
## X-Embeds: LibBabble-CreatureType-3.0, LibBabble-Race-3.0

# All files for TellMeWhen_Options are now stored in the main addon.
# However, they still are not loaded until TellMeWhen_Options, so there is no difference in performance or anything.
# This makes the structure for modules and components that need their own config files much neater and nicer.

..\TellMeWhen\Options\includes.xml


## Title-zhCN: |cff880303[爱不易]|r TellMeWhen 选项
## X-Vendor: AbyUI
