## Interface: 90005
## Version: 19.03.31
## Title: TipTacTalents
## Author: Aezay (Earthen Ring EU)
## Notes: Adds Talent Spec to Player Tooltips
## OptionalDeps: TipTac
ttTalents.lua

## Title-zhCN: |cff880303[爱不易]|r TipTac 天赋模块
## X-Vendor: AbyUI