## Interface: 90005
## Title: Tidy Plates
## Notes: Enjoys long walks on Darkshore
## Author: Binbwen and Friends
## X-Curse-Project-ID: 21409
## Version: 6.20.5
## SavedVariablesPerCharacter: TidyPlatesOptions

TidyPlates.xml
## Title-zhCN: |cff880303[爱不易]|r TidyPlates 姓名版增强
## Title-zhTW: |cff880303[爱不易]|r TidyPlates 姓名板增强
## Notes-zhCN: 强大到爆的多功能姓名版美化插件。
## Notes-zhTW: 強大到爆的多功能姓名版美化插件。
## X-Vendor: AbyUI
