## Interface: 90005
## Title: TargetButton
## Notes: This little improvement adds buttons to the targeting frame when a friendly player is selected. 
## X-Repple: 辅助
## SavedVariables: 
TargetButton.xml

## Title: |cff880303[爱不易]|r TargetB 目标快捷按钮
## Notes-zhCN: 当你的目标是友好玩家时在目标框上加交易和查看装备的按钮
## Notes-zhTW: 當你的目標是友好玩家時在目標框上加交易和查看裝備的按鈕
## X-Vendor: AbyUI