## Interface: 90005
## Title: HandyNotes_LunarFestival
## Notes: Displays the locations of Lunar Festival elders.
## Author: Ravendwyr
## Version: v1.6.3-1-g758afc8
## X-Category: Map & Minimap
## SavedVariables: HandyNotes_LunarFestivalDB
## RequiredDeps: HandyNotes
## X-Curse-Project-ID: 45902

Core.lua
Data.lua

## Title-zhCN: |cff880303[爱不易]|r HandyNotes春节长者
## X-Vendor: AbyUI
