## Interface: 90005
## Title: Bagnon Guild Bank
## Author: Tuller & Jaliborc (João Cardoso)
## Notes: Single window display for your guild bank
## RequiredDeps: Bagnon
## LoadOnDemand: 1

..\Bagnon\addons\guild\guild.xml


## Title: |cff880303[爱不易]|r Bagnon 公会银行整合
## Notes: 在一个窗口中显示所有公会银行内的物品
## X-Vendor: AbyUI
