## Interface: 90005
## Author: p3lim
## Version: 70300.29-Release
## Title: Broker Equipment
## Notes: LDB Equipment Manager plug-in
## SavedVariables: Broker_EquipmentDB

## OptionalDeps: LibStub, CallbackHandler-1.0, LibDataBroker-1.1

Localization.lua
Config.lua
Broker_Equipment.lua

## Title: |cff880303[爱不易]|r Broker 套装菜单
## Notes-zhCN: 快捷显示套装名称
## X-Vendor: AbyUI
