## Interface: 90005
## Title: Grail |cff69ccf0NPCs |r|cff0000ffRetail|r|cff69ccf0 zhCN|r
## Author: Scott M Harrison
## Notes: Provides localized zhCN NPCs to Grail for Retail
## Version: 27178
## Dependencies: Grail
## LoadOnDemand: 1

Grail-NPCs-_retail_-zhCN.lua

## Title: |cff880303[爱不易]|r Grail NPC模块中文
## X-Vendor: AbyUI
