## Interface: 90005
## LoadOnDemand: 0
## Notes:  一些聊天窗口的设置，缩放、滚动、时间标记、记录行数等。

## SavedVariables: WWM_friendsWhisp, WWM_guildWhisp, WWM_totallastplayers, WWM_entries

163UI_Chat.lua
yTimeStamp.lua
easyChannel.lua
WhoWhisperedMe.xml
BNCharacterName.lua
Tiny_ChatAtFriends.lua
#Tiny_ChatLinkLevel.lua

## Title-zhCN: |cff880303[爱不易]|r AbyUI 聊天框增强
## X-Vendor: AbyUI
