## Interface: 90005
## Title: World Quest Tracker
## Notes: Make more easy to see world quests
## SavedVariables: WQTrackerDB
## SavedVariablesPerCharacter: WQTrackerDBChr

#@no-lib-strip@
libs\libs.xml
#@end-no-lib-strip@

locales\enUS.lua
locales\zhCN.lua
locales\zhTW.lua

WorldQuestTracker.xml

WorldQuestTracker_Initialize.lua
WorldQuestTracker_IDs.lua

WorldQuestTracker.lua

WorldQuestTracker_Core.lua

WorldQuestTracker_FrameAPI.lua
WorldQuestTracker_MapAPI.lua
WorldQuestTracker_GroupFinder.lua
WorldQuestTracker_RareFinder.lua
WorldQuestTracker_ZoneMap.lua
WorldQuestTracker_WorldMap.lua
WorldQuestTracker_Tracker.lua
WorldQuestTracker_Taxi.lua

WorldQuestTrackerMixin.xml

## Title: |cff880303[爱不易]|r WorldQuest 世界任务追踪
## X-Vendor: AbyUI
