﻿## Interface: 90005
## Title: [界面]vBar动作条
## Notes: 增加额外动作条.
## Author: 老V
## Version: 6.0
## OptionalDeps: Masque
## SavedVariablesPerCharacter: VBar
vBar.lua
vBar.xml

## Title-zhCN: |cff880303[爱不易]|r vBar 额外动作条
## X-Vendor: AbyUI
